<svg width="40" height="40" viewBox="0 0 40 40" fill="none" xmlns="http://www.w3.org/2000/svg">
<circle cx="20" cy="20" r="20" fill="black"/>
<path d="M23.6 16.4001C25.0322 16.4001 26.4057 16.9691 27.4184 17.9818C28.4311 18.9945 29 20.368 29 21.8001V28.1001H25.4V21.8001C25.4 21.3228 25.2104 20.8649 24.8728 20.5273C24.5352 20.1898 24.0774 20.0001 23.6 20.0001C23.1226 20.0001 22.6648 20.1898 22.3272 20.5273C21.9897 20.8649 21.8 21.3228 21.8 21.8001V28.1001H18.2V21.8001C18.2 20.368 18.7689 18.9945 19.7816 17.9818C20.7943 16.9691 22.1678 16.4001 23.6 16.4001V16.4001Z" fill="white"/>
<path d="M14.6 17.3H11V28.1H14.6V17.3Z" fill="white"/>
<path d="M12.8 14.6C13.7941 14.6 14.6 13.7941 14.6 12.8C14.6 11.8059 13.7941 11 12.8 11C11.8059 11 11 11.8059 11 12.8C11 13.7941 11.8059 14.6 12.8 14.6Z" fill="white"/>
</svg>
